{"page":1,"total_results":349599,"total_pages":17480,"results":[{"vote_count":6471,"id":269149,"video":false,"vote_average":7.7,"title":"(Test) Zootopia","popularity":481.992544,"poster_path":"\/sM33SANp9z6rXW8Itn7NnG1GOEs.jpg","original_language":"en","original_title":"(Test) Zootopia","genre_ids":[16,12,10751,35],"backdrop_path":"\/mhdeE1yShHTaDbJVdWyTlzFvNkr.jpg","adult":false,"overview":"Determined to prove herself, Officer Judy Hopps, the first bunny on Zootopia's police force, jumps at the chance to crack her first case - even if it means partnering with scam-artist fox Nick Wilde to solve the mystery.","release_date":"2016-02-11"},{"vote_count":2218,"id":399055,"video":false,"vote_average":7.4,"title":"The Shape of Water","popularity":425.381582,"poster_path":"\/k4FwHlMhuRR5BISY2Gm2QZHlH5Q.jpg","original_language":"en","original_title":"The Shape of Water","genre_ids":[18,14,10749],"backdrop_path":"\/rgyhSn3mINvkuy9iswZK0VLqQO3.jpg","adult":false,"overview":"An other-worldly story, set against the backdrop of Cold War era America circa 1962, where a mute janitor working at a lab falls in love with an amphibious man being held captive there and devises a plan to help him escape.","release_date":"2017-12-01"},{"vote_count":7262,"id":198663,"video":false,"vote_average":7,"title":"The Maze Runner","popularity":332.589296,"poster_path":"\/coss7RgL0NH6g4fC2s5atvf3dFO.jpg","original_language":"en","original_title":"The Maze Runner","genre_ids":[28,9648,878,53],"backdrop_path":"\/lkOZcsXcOLZYeJ2YxJd3vSldvU4.jpg","adult":false,"overview":"Set in a post-apocalyptic world, young Thomas is deposited in a community of boys after his memory is erased, soon learning they're all trapped in a maze that will require him to join forces with fellow “runners” for a shot at escape.","release_date":"2014-09-10"},{"vote_count":2544,"id":284054,"video":false,"vote_average":7.4,"title":"Black Panther","popularity":271.475765,"poster_path":"\/uxzzxijgPIY7slzFvMotPv8wjKA.jpg","original_language":"en","original_title":"Black Panther","genre_ids":[28,12,14,878],"backdrop_path":"\/b6ZJZHUdMEFECvGiDpJjlfUWela.jpg","adult":false,"overview":"After the events of Captain America: Civil War, King T'Challa returns home to the reclusive, technologically advanced African nation of Wakanda to serve as his country's new leader. However, T'Challa soon finds that he is challenged for the throne from factions within his own country. When two foes conspire to destroy Wakanda, the hero known as Black Panther must team up with C.I.A. agent Everett K. Ross and members of the Dora Milaje, Wakandan special forces, to prevent Wakanda from being dragged into a world war.","release_date":"2018-02-13"},{"vote_count":4702,"id":284053,"video":false,"vote_average":7.4,"title":"Thor: Ragnarok","popularity":220.584191,"poster_path":"\/oSLd5GYGsiGgzDPKTwQh7wamO8t.jpg","original_language":"en","original_title":"Thor: Ragnarok","genre_ids":[878,28,12,35,14],"backdrop_path":"\/kaIfm5ryEOwYg8mLbq8HkPuM1Fo.jpg","adult":false,"overview":"Thor is imprisoned on the other side of the universe and finds himself in a race against time to get back to Asgard to stop Ragnarok, the prophecy of destruction to his homeworld and the end of Asgardian civilization, at the hands of an all-powerful new threat, the ruthless Hela.","release_date":"2017-10-25"},{"vote_count":806,"id":337167,"video":false,"vote_average":6.3,"title":"Fifty Shades Freed","popularity":204.508327,"poster_path":"\/jjPJ4s3DWZZvI4vw8Xfi4Vqa1Q8.jpg","original_language":"en","original_title":"Fifty Shades Freed","genre_ids":[18,10749],"backdrop_path":"\/9ywA15OAiwjSTvg3cBs9B7kOCBF.jpg","adult":false,"overview":"Believing they have left behind shadowy figures from their past, newlyweds Christian and Ana fully embrace an inextricable connection and shared life of luxury. But just as she steps into her role as Mrs. Grey and he relaxes into an unfamiliar stability, new threats could jeopardize their happy ending before it even begins.","release_date":"2018-02-07"},{"vote_count":1915,"id":396422,"video":false,"vote_average":6.4,"title":"Annabelle: Creation","popularity":176.948795,"poster_path":"\/tb86j8jVCVsdZnzf8I6cIi65IeM.jpg","original_language":"en","original_title":"Annabelle: Creation","genre_ids":[27,9648,53],"backdrop_path":"\/3L5gfIKt2RK9vnCiLgWTAzkhQWC.jpg","adult":false,"overview":"Several years after the tragic death of their little girl, a dollmaker and his wife welcome a nun and several girls from a shuttered orphanage into their home, soon becoming the target of the dollmaker's possessed creation, Annabelle.","release_date":"2017-08-03"},{"vote_count":2886,"id":354912,"video":false,"vote_average":7.8,"title":"Coco","popularity":159.104414,"poster_path":"\/eKi8dIrr8voobbaGzDpe8w0PVbC.jpg","original_language":"en","original_title":"Coco","genre_ids":[12,16,35,10751],"backdrop_path":"\/askg3SMvhqEl4OL52YuvdtY40Yb.jpg","adult":false,"overview":"Despite his family’s baffling generations-old ban on music, Miguel dreams of becoming an accomplished musician like his idol, Ernesto de la Cruz. Desperate to prove his talent, Miguel finds himself in the stunning and colorful Land of the Dead following a mysterious chain of events. Along the way, he meets charming trickster Hector, and together, they set off on an extraordinary journey to unlock the real story behind Miguel's family history.","release_date":"2017-10-27"},{"vote_count":3421,"id":141052,"video":false,"vote_average":6.4,"title":"Justice League","popularity":148.942858,"poster_path":"\/eifGNCSDuxJeS1loAXil5bIGgvC.jpg","original_language":"en","original_title":"Justice League","genre_ids":[28,12,14,878],"backdrop_path":"\/o5T8rZxoWSBMYwjsUFUqTt6uMQB.jpg","adult":false,"overview":"Fuelled by his restored faith in humanity and inspired by Superman's selfless act, Bruce Wayne and Diana Prince assemble a team of metahumans consisting of Barry Allen, Arthur Curry and Victor Stone to face the catastrophic threat of Steppenwolf and the Parademons who are on the hunt for three Mother Boxes on Earth.","release_date":"2017-11-15"},{"vote_count":7571,"id":321612,"video":false,"vote_average":6.8,"title":"Beauty and the Beast","popularity":143.30791,"poster_path":"\/tWqifoYuwLETmmasnGHO7xBjEtt.jpg","original_language":"en","original_title":"Beauty and the Beast","genre_ids":[10751,14,10749],"backdrop_path":"\/6aUWe0GSl69wMTSWWexsorMIvwU.jpg","adult":false,"overview":"A live-action adaptation of Disney's version of the classic tale of a cursed prince and a beautiful young woman who helps him break the spell.","release_date":"2017-03-16"},{"vote_count":487,"id":460793,"video":false,"vote_average":5.9,"title":"Olaf's Frozen Adventure","popularity":140.716891,"poster_path":"\/As8WTtxXs9e3cBit3ztTf7zoRmm.jpg","original_language":"en","original_title":"Olaf's Frozen Adventure","genre_ids":[12,16,35,10751,14,10402],"backdrop_path":"\/9K4QqQZg4TVXcxBGDiVY4Aey3Rn.jpg","adult":false,"overview":"Olaf is on a mission to harness the best holiday traditions for Anna, Elsa, and Kristoff.","release_date":"2017-10-27"},{"vote_count":18,"id":394823,"video":false,"vote_average":5.6,"title":"Robby and Toby's Fantastic Voyager","popularity":139.851698,"poster_path":"\/ssCEE0bfj5gawzwZeGfqrGQtU3f.jpg","original_language":"de","original_title":"Robbi, Tobbi und das Fliewatüüt","genre_ids":[12,10751],"backdrop_path":"\/gZF2EfM8ov834pCzRpt1xt01SUy.jpg","adult":false,"overview":"One day, robot Robby enters into a life of the most creative little boy, Toby. Robby had been separated from his robot parents when his spaceship crashed. Toby decides to offer his help and the two of them become friends.","release_date":"2016-12-01"},{"vote_count":263,"id":347882,"video":false,"vote_average":5.2,"title":"Sleight","popularity":131.157739,"poster_path":"\/wridRvGxDqGldhzAIh3IcZhHT5F.jpg","original_language":"en","original_title":"Sleight","genre_ids":[18,53,28,878],"backdrop_path":"\/2SEgJ0mHJ7TSdVDbkGU061tR33K.jpg","adult":false,"overview":"A young street magician is left to take care of his little sister after his mother's passing and turns to drug dealing in the Los Angeles party scene to keep a roof over their heads. When he gets into trouble with his supplier, his sister is kidnapped and he is forced to rely on both his sleight of hand and brilliant mind to save her.","release_date":"2017-04-28"},{"vote_count":4405,"id":216015,"video":false,"vote_average":5.3,"title":"Fifty Shades of Grey","popularity":121.118285,"poster_path":"\/jV8wnk3Jgz6f7degmT3lHNGI2tK.jpg","original_language":"en","original_title":"Fifty Shades of Grey","genre_ids":[18,10749,53],"backdrop_path":"\/zAd0MjURkOvJynIsqmLMBcICxUt.jpg","adult":false,"overview":"When college senior Anastasia Steele steps in for her sick roommate to interview prominent businessman Christian Grey for their campus paper, little does she realize the path her life will take. Christian, as enigmatic as he is rich and powerful, finds himself strangely drawn to Ana, and she to him. Though sexually inexperienced, Ana plunges headlong into an affair -- and learns that Christian's true sexual proclivities push the boundaries of pain and pleasure.","release_date":"2015-02-11"},{"vote_count":231,"id":401981,"video":false,"vote_average":6.5,"title":"Red Sparrow","popularity":114.306944,"poster_path":"\/uZwnaMQTdwZz1kwtrrU3IOqxnDu.jpg","original_language":"en","original_title":"Red Sparrow","genre_ids":[9648,53],"backdrop_path":"\/sGzuQYSTwJvLBc2PnuSVLHhuFeh.jpg","adult":false,"overview":"Prima ballerina Dominika Egorova faces a bleak and uncertain future after she suffers an injury that ends her career. She soon turns to Sparrow School, a secret intelligence service that trains exceptional young people to use their minds and bodies as weapons. Egorova emerges as the most dangerous Sparrow after completing the sadistic training process. As she comes to terms with her new abilities, Dominika meets a CIA agent who tries to convince her that he is the only person she can trust.","release_date":"2018-03-01"},{"vote_count":1971,"id":359940,"video":false,"vote_average":8.2,"title":"Three Billboards Outside Ebbing, Missouri","popularity":112.194577,"poster_path":"\/vgvw6w1CtcFkuXXn004S5wQsHRl.jpg","original_language":"en","original_title":"Three Billboards Outside Ebbing, Missouri","genre_ids":[80,18],"backdrop_path":"\/bJLJAtGjBj836UjJZNOwgrfe5Ps.jpg","adult":false,"overview":"After seven months have passed without a culprit in her daughter's murder case, Mildred Hayes makes a bold move, painting three signs leading into her town with a controversial message directed at Bill Willoughby, the town's revered chief of police. When his second-in-command Officer Jason Dixon, an immature mother's boy with a penchant for violence, gets involved, the battle between Mildred and Ebbing's law enforcement is only exacerbated.","release_date":"2017-11-10"},{"vote_count":3617,"id":335984,"video":false,"vote_average":7.4,"title":"Blade Runner 2049","popularity":105.369143,"poster_path":"\/gajva2L0rPYkEWjzgFlBXCAVBE5.jpg","original_language":"en","original_title":"Blade Runner 2049","genre_ids":[9648,878,53],"backdrop_path":"\/mVr0UiqyltcfqxbAUcLl9zWL8ah.jpg","adult":false,"overview":"Thirty years after the events of the first film, a new blade runner, LAPD Officer K, unearths a long-buried secret that has the potential to plunge what's left of society into chaos. K's discovery leads him on a quest to find Rick Deckard, a former LAPD blade runner who has been missing for 30 years.","release_date":"2017-10-04"},{"vote_count":2936,"id":343668,"video":false,"vote_average":7,"title":"Kingsman: The Golden Circle","popularity":103.228898,"poster_path":"\/34xBL6BXNYFqtHO9zhcgoakS4aP.jpg","original_language":"en","original_title":"Kingsman: The Golden Circle","genre_ids":[28,12,35],"backdrop_path":"\/uExPmkOHJySrbJyJDJylHDqaT58.jpg","adult":false,"overview":"When an attack on the Kingsman headquarters takes place and a new villain rises, Eggsy and Merlin are forced to work together with the American agency known as the Statesman to save the world.","release_date":"2017-09-20"},{"vote_count":4348,"id":339403,"video":false,"vote_average":7.4,"title":"Baby Driver","popularity":94.936957,"poster_path":"\/dN9LbVNNZFITwfaRjl4tmwGWkRg.jpg","original_language":"en","original_title":"Baby Driver","genre_ids":[28,80],"backdrop_path":"\/goCvLSUFz0p7k8R10Hv4CVh3EQv.jpg","adult":false,"overview":"After being coerced into working for a crime boss, a young getaway driver finds himself taking part in a heist doomed to fail.","release_date":"2017-06-28"},{"vote_count":8852,"id":209112,"video":false,"vote_average":5.8,"title":"Batman v Superman: Dawn of Justice","popularity":93.43612,"poster_path":"\/cGOPbv9wA5gEejkUN892JrveARt.jpg","original_language":"en","original_title":"Batman v Superman: Dawn of Justice","genre_ids":[28,12,14],"backdrop_path":"\/vsjBeMPZtyB7yNsYY56XYxifaQZ.jpg","adult":false,"overview":"Fearing the actions of a god-like Super Hero left unchecked, Gotham City’s own formidable, forceful vigilante takes on Metropolis’s most revered, modern-day savior, while the world wrestles with what sort of hero it really needs. And with Batman and Superman at war with one another, a new threat quickly arises, putting mankind in greater danger than it’s ever known before.","release_date":"2016-03-23"}]}